<svg width="42" height="43" viewBox="0 0 42 43" fill="none" xmlns="http://www.w3.org/2000/svg">
<path d="M10.6253 37.8447C10.6669 38.8264 11.4739 39.6002 12.4557 39.6002H29.5574C30.5392 39.6002 31.3504 38.8264 31.3878 37.8447L32.6109 12.061H9.40223L10.6253 37.8447ZM24.8733 18.4674C24.8733 18.0556 25.2061 17.7228 25.6179 17.7228H26.8077C27.2195 17.7228 27.5523 18.0597 27.5523 18.4674V33.198C27.5523 33.6098 27.2154 33.9426 26.8077 33.9426H25.6179C25.2061 33.9426 24.8733 33.6098 24.8733 33.198V18.4674ZM19.6691 18.4674C19.6691 18.0556 20.0019 17.7228 20.4138 17.7228H21.6035C22.0154 17.7228 22.3482 18.0597 22.3482 18.4674V33.198C22.3482 33.6098 22.0154 33.9426 21.6035 33.9426H20.4138C20.0019 33.9426 19.6691 33.6098 19.6691 33.198V18.4674ZM14.4608 18.4674C14.4608 18.0556 14.7936 17.7228 15.2013 17.7228H16.391C16.8029 17.7228 17.1357 18.0597 17.1357 18.4674V33.198C17.1357 33.6098 16.7987 33.9426 16.391 33.9426H15.2013C14.7894 33.9426 14.4608 33.6098 14.4608 33.198V18.4674ZM33.4221 5.07636H25.5347V3.58292C25.5347 3.37076 25.3642 3.2002 25.152 3.2002H16.8653C16.6531 3.2002 16.4826 3.37076 16.4826 3.58292V5.07636H8.59103C7.95871 5.07636 7.44287 5.58804 7.44287 6.22452V9.8354H34.5702V6.22452C34.5702 5.5922 34.0586 5.07636 33.4221 5.07636V5.07636Z" fill="#FF6760"/>
</svg>
